{
	"miniprogramRoot": "dist/",
	"projectname": "test",
	"description": "test",
	"appid": "wx77c8c24eead92284",
	"setting": {
		"urlCheck": true,
		"es6": false,
		"enhance": false,
		"postcss": false,
		"preloadBackgroundData": false,
		"minified": true,
		"newFeature": true,
		"coverView": true,
		"autoAudits": false,
		"showShadowRootInWxmlPanel": false,
		"scopeDataCheck": false,
		"uglifyFileName": true,
		"checkInvalidKey": true,
		"checkSiteMap": true,
		"uploadWithSourceMap": true,
		"babelSetting": {
			"ignore": [],
			"disablePlugins": [],
			"outputPath": ""
		}
	},
	"compileType": "miniprogram",
	"simulatorType": "wechat",
	"simulatorPluginLibVersion": {},
	"libVersion": "2.9.4",
	"condition": {
		"search": {
			"current": -1,
			"list": []
		},
		"conversation": {
			"current": -1,
			"list": []
		},
		"plugin": {
			"current": -1,
			"list": []
		},
		"game": {
			"list": []
		},
		"gamePlugin": {
			"current": -1,
			"list": []
		},
		"miniprogram": {
			"current": -1,
			"list": [
				{
					"id": -1,
					"name": "pages/activity/activity-detail",
					"pathName": "pages/activity/activity-detail",
					"query": "",
					"scene": null
				},
				{
					"id": -1,
					"name": "pages/order/order-confirm",
					"pathName": "pages/order/order-confirm",
					"query": "",
					"scene": null
				},
				{
					"id": -1,
					"name": "pages/index/index",
					"pathName": "pages/index/index",
					"query": "",
					"scene": null
				},
				{
					"id": -1,
					"name": "pages/admin/admin",
					"pathName": "pages/admin/admin",
					"query": "",
					"scene": null
				},
				{
					"id": -1,
					"name": "pages/index/index",
					"pathName": "pages/index/index",
					"query": "",
					"scene": null
				},
				{
					"id": -1,
					"name": "pages/login/login",
					"pathName": "pages/login/login",
					"query": "",
					"scene": null
				},
				{
					"id": -1,
					"name": "pages/identify/identify",
					"pathName": "pages/identify/identify",
					"query": "",
					"scene": null
				},
				{
					"id": -1,
					"name": "pages/activity/add",
					"pathName": "pages/activity/add",
					"query": "",
					"scene": null
				},
				{
					"id": 8,
					"name": "pages/activity/overview",
					"pathName": "pages/activity/overview",
					"query": "",
					"scene": null
				},
				{
					"id": -1,
					"name": "pages/activity/calendar",
					"pathName": "pages/activity/calendar",
					"query": "",
					"scene": null
				},
				{
					"id": 10,
					"name": "pages/activity/location",
					"pathName": "pages/activity/location",
					"query": "",
					"scene": null
				}
			]
		}
	}
}